%YAML 1.1
%TAG !u! tag:unity3d.com,2011:
--- !u!74 &7400000
AnimationClip:
  m_ObjectHideFlags: 0
  m_PrefabParentObject: {fileID: 0}
  m_PrefabInternal: {fileID: 0}
  m_Name: IntroAnim
  serializedVersion: 6
  m_Legacy: 0
  m_Compressed: 0
  m_UseHighQualityCurve: 1
  m_RotationCurves: []
  m_CompressedRotationCurves: []
  m_PositionCurves:
  - curve:
      serializedVersion: 2
      m_Curve:
      - time: 0
        value: {x: 0, y: -1, z: -900}
        inSlope: {x: 0, y: 0, z: 310}
        outSlope: {x: -0, y: -0, z: 2.02185369}
        tangentMode: 0
      - time: 1.98333335
        value: {x: 0, y: -1, z: -895.98999}
        inSlope: {x: 0, y: 0, z: 2.02185369}
        outSlope: {x: -0, y: -0, z: 151.730576}
        tangentMode: 0
      - time: 4
        value: {x: 0, y: -1, z: -590}
        inSlope: {x: 0, y: 0, z: 151.730576}
        outSlope: {x: -0, y: -0, z: 12.6050434}
        tangentMode: 0
      - time: 5.98333311
        value: {x: 0, y: -1, z: -565}
        inSlope: {x: 0, y: 0, z: 12.6050434}
        outSlope: {x: -0, y: -0, z: 242.975174}
        tangentMode: 0
      - time: 8
        value: {x: 0, y: -1, z: -75}
        inSlope: {x: 0, y: 0, z: 242.975174}
        outSlope: {x: -0, y: -0, z: 4.25}
        tangentMode: 0
      - time: 12
        value: {x: 0, y: -1, z: -58}
        inSlope: {x: 0, y: 0, z: 4.25}
        outSlope: {x: -0, y: -0, z: 57.5}
        tangentMode: 0
      - time: 13
        value: {x: 0, y: -1, z: -.5}
        inSlope: {x: 0, y: 0, z: 57.5}
        outSlope: {x: 0, y: 0, z: 54.7618942}
        tangentMode: 0
      m_PreInfinity: 2
      m_PostInfinity: 2
    path: Camera Pivot
  m_ScaleCurves: []
  m_FloatCurves:
  - curve:
      serializedVersion: 2
      m_Curve:
      - time: 0
        value: 0
        inSlope: Infinity
        outSlope: Infinity
        tangentMode: 31
      - time: 1.98333335
        value: 1
        inSlope: Infinity
        outSlope: Infinity
        tangentMode: 31
      m_PreInfinity: 2
      m_PostInfinity: 2
    attribute: EmissionModule.enabled
    path: Camera Pivot/Particle System
    classID: 198
    script: {fileID: 0}
  - curve:
      serializedVersion: 2
      m_Curve:
      - time: 0
        value: 0
        inSlope: 0
        outSlope: 0
        tangentMode: 10
      - time: 3
        value: 0
        inSlope: .24793385
        outSlope: .24793385
        tangentMode: 10
      - time: 5.01666689
        value: 1
        inSlope: .495867699
        outSlope: .495867699
        tangentMode: 10
      m_PreInfinity: 2
      m_PostInfinity: 2
    attribute: material._FaceColor.a
    path: Text/RokaiLabs
    classID: 23
    script: {fileID: 0}
  - curve:
      serializedVersion: 2
      m_Curve:
      - time: 0
        value: 0
        inSlope: 0
        outSlope: 0
        tangentMode: 10
      - time: 3
        value: 0
        inSlope: .24793385
        outSlope: .24793385
        tangentMode: 10
      - time: 5.01666689
        value: 1
        inSlope: .495867699
        outSlope: .495867699
        tangentMode: 10
      m_PreInfinity: 2
      m_PostInfinity: 2
    attribute: m_Color.a
    path: Text/RokaiLabs/Logo
    classID: 212
    script: {fileID: 0}
  - curve:
      serializedVersion: 2
      m_Curve:
      - time: 0
        value: 1
        inSlope: -.110701099
        outSlope: -.110701099
        tangentMode: 10
      m_PreInfinity: 2
      m_PostInfinity: 2
    attribute: material._FaceColor.r
    path: Text/RokaiLabs
    classID: 23
    script: {fileID: 0}
  - curve:
      serializedVersion: 2
      m_Curve:
      - time: 0
        value: 1
        inSlope: -.110701099
        outSlope: -.110701099
        tangentMode: 10
      m_PreInfinity: 2
      m_PostInfinity: 2
    attribute: material._FaceColor.g
    path: Text/RokaiLabs
    classID: 23
    script: {fileID: 0}
  - curve:
      serializedVersion: 2
      m_Curve:
      - time: 0
        value: 1
        inSlope: -.110701099
        outSlope: -.110701099
        tangentMode: 10
      m_PreInfinity: 2
      m_PostInfinity: 2
    attribute: material._FaceColor.b
    path: Text/RokaiLabs
    classID: 23
    script: {fileID: 0}
  - curve:
      serializedVersion: 2
      m_Curve:
      - time: 0
        value: 1
        inSlope: 0
        outSlope: 0
        tangentMode: 10
      m_PreInfinity: 2
      m_PostInfinity: 2
    attribute: material._FaceColor.r
    path: Text/Welcome
    classID: 23
    script: {fileID: 0}
  - curve:
      serializedVersion: 2
      m_Curve:
      - time: 0
        value: 1
        inSlope: 0
        outSlope: 0
        tangentMode: 10
      m_PreInfinity: 2
      m_PostInfinity: 2
    attribute: material._FaceColor.g
    path: Text/Welcome
    classID: 23
    script: {fileID: 0}
  - curve:
      serializedVersion: 2
      m_Curve:
      - time: 0
        value: 1
        inSlope: 0
        outSlope: 0
        tangentMode: 10
      m_PreInfinity: 2
      m_PostInfinity: 2
    attribute: material._FaceColor.b
    path: Text/Welcome
    classID: 23
    script: {fileID: 0}
  - curve:
      serializedVersion: 2
      m_Curve:
      - time: 0
        value: 0
        inSlope: 0
        outSlope: 0
        tangentMode: 10
      - time: 7
        value: 0
        inSlope: .333333343
        outSlope: .333333343
        tangentMode: 10
      - time: 8.5
        value: 1
        inSlope: .666666687
        outSlope: .666666687
        tangentMode: 10
      m_PreInfinity: 2
      m_PostInfinity: 2
    attribute: material._FaceColor.a
    path: Text/Welcome
    classID: 23
    script: {fileID: 0}
  m_PPtrCurves: []
  m_SampleRate: 60
  m_WrapMode: 0
  m_Bounds:
    m_Center: {x: 0, y: 0, z: 0}
    m_Extent: {x: 0, y: 0, z: 0}
  m_ClipBindingConstant:
    genericBindings:
    - path: 3234583771
      attribute: 1
      script: {fileID: 0}
      classID: 4
      customType: 0
      isPPtrCurve: 0
    - path: 2151809437
      attribute: 1087013301
      script: {fileID: 0}
      classID: 198
      customType: 0
      isPPtrCurve: 0
    - path: 2742009632
      attribute: 2039363450
      script: {fileID: 0}
      classID: 23
      customType: 22
      isPPtrCurve: 0
    - path: 2721756934
      attribute: 304273561
      script: {fileID: 0}
      classID: 212
      customType: 0
      isPPtrCurve: 0
    - path: 2742009632
      attribute: 1234057082
      script: {fileID: 0}
      classID: 23
      customType: 22
      isPPtrCurve: 0
    - path: 2742009632
      attribute: 1502492538
      script: {fileID: 0}
      classID: 23
      customType: 22
      isPPtrCurve: 0
    - path: 2742009632
      attribute: 1770927994
      script: {fileID: 0}
      classID: 23
      customType: 22
      isPPtrCurve: 0
    - path: 1756773752
      attribute: 2039363450
      script: {fileID: 0}
      classID: 23
      customType: 22
      isPPtrCurve: 0
    - path: 1756773752
      attribute: 1234057082
      script: {fileID: 0}
      classID: 23
      customType: 22
      isPPtrCurve: 0
    - path: 1756773752
      attribute: 1502492538
      script: {fileID: 0}
      classID: 23
      customType: 22
      isPPtrCurve: 0
    - path: 1756773752
      attribute: 1770927994
      script: {fileID: 0}
      classID: 23
      customType: 22
      isPPtrCurve: 0
    pptrCurveMapping: []
  m_AnimationClipSettings:
    serializedVersion: 2
    m_StartTime: 0
    m_StopTime: 13
    m_OrientationOffsetY: 0
    m_Level: 0
    m_CycleOffset: 0
    m_LoopTime: 0
    m_LoopBlend: 0
    m_LoopBlendOrientation: 0
    m_LoopBlendPositionY: 0
    m_LoopBlendPositionXZ: 0
    m_KeepOriginalOrientation: 0
    m_KeepOriginalPositionY: 1
    m_KeepOriginalPositionXZ: 0
    m_HeightFromFeet: 0
    m_Mirror: 0
  m_EditorCurves:
  - curve:
      serializedVersion: 2
      m_Curve:
      - time: 0
        value: 0
        inSlope: 0
        outSlope: -0
        tangentMode: 21
      - time: 1.98333335
        value: 0
        inSlope: 0
        outSlope: -0
        tangentMode: 21
      - time: 4
        value: 0
        inSlope: 0
        outSlope: -0
        tangentMode: 21
      - time: 5.98333311
        value: 0
        inSlope: 0
        outSlope: -0
        tangentMode: 21
      - time: 8
        value: 0
        inSlope: 0
        outSlope: -0
        tangentMode: 21
      - time: 12
        value: 0
        inSlope: 0
        outSlope: -0
        tangentMode: 21
      - time: 13
        value: 0
        inSlope: 0
        outSlope: 0
        tangentMode: 21
      m_PreInfinity: 2
      m_PostInfinity: 2
    attribute: m_LocalPosition.x
    path: Camera Pivot
    classID: 4
    script: {fileID: 0}
  - curve:
      serializedVersion: 2
      m_Curve:
      - time: 0
        value: -1
        inSlope: 0
        outSlope: -0
        tangentMode: 21
      - time: 1.98333335
        value: -1
        inSlope: 0
        outSlope: -0
        tangentMode: 21
      - time: 4
        value: -1
        inSlope: 0
        outSlope: -0
        tangentMode: 21
      - time: 5.98333311
        value: -1
        inSlope: 0
        outSlope: -0
        tangentMode: 21
      - time: 8
        value: -1
        inSlope: 0
        outSlope: -0
        tangentMode: 21
      - time: 12
        value: -1
        inSlope: 0
        outSlope: -0
        tangentMode: 21
      - time: 13
        value: -1
        inSlope: 0
        outSlope: 0
        tangentMode: 21
      m_PreInfinity: 2
      m_PostInfinity: 2
    attribute: m_LocalPosition.y
    path: Camera Pivot
    classID: 4
    script: {fileID: 0}
  - curve:
      serializedVersion: 2
      m_Curve:
      - time: 0
        value: -900
        inSlope: 310
        outSlope: 2.02185369
        tangentMode: 21
      - time: 1.98333335
        value: -895.98999
        inSlope: 2.02185369
        outSlope: 151.730576
        tangentMode: 21
      - time: 4
        value: -590
        inSlope: 151.730576
        outSlope: 12.6050434
        tangentMode: 21
      - time: 5.98333311
        value: -565
        inSlope: 12.6050434
        outSlope: 242.975174
        tangentMode: 21
      - time: 8
        value: -75
        inSlope: 242.975174
        outSlope: 4.25
        tangentMode: 21
      - time: 12
        value: -58
        inSlope: 4.25
        outSlope: 57.5
        tangentMode: 21
      - time: 13
        value: -.5
        inSlope: 57.5
        outSlope: 54.7618942
        tangentMode: 21
      m_PreInfinity: 2
      m_PostInfinity: 2
    attribute: m_LocalPosition.z
    path: Camera Pivot
    classID: 4
    script: {fileID: 0}
  - curve:
      serializedVersion: 2
      m_Curve:
      - time: 0
        value: 0
        inSlope: Infinity
        outSlope: Infinity
        tangentMode: 31
      - time: 1.98333335
        value: 1
        inSlope: Infinity
        outSlope: Infinity
        tangentMode: 31
      m_PreInfinity: 2
      m_PostInfinity: 2
    attribute: EmissionModule.enabled
    path: Camera Pivot/Particle System
    classID: 198
    script: {fileID: 0}
  - curve:
      serializedVersion: 2
      m_Curve:
      - time: 0
        value: 0
        inSlope: 0
        outSlope: 0
        tangentMode: 10
      - time: 3
        value: 0
        inSlope: .24793385
        outSlope: .24793385
        tangentMode: 10
      - time: 5.01666689
        value: 1
        inSlope: .495867699
        outSlope: .495867699
        tangentMode: 10
      m_PreInfinity: 2
      m_PostInfinity: 2
    attribute: material._FaceColor.a
    path: Text/RokaiLabs
    classID: 23
    script: {fileID: 0}
  - curve:
      serializedVersion: 2
      m_Curve:
      - time: 0
        value: 0
        inSlope: 0
        outSlope: 0
        tangentMode: 10
      - time: 3
        value: 0
        inSlope: .24793385
        outSlope: .24793385
        tangentMode: 10
      - time: 5.01666689
        value: 1
        inSlope: .495867699
        outSlope: .495867699
        tangentMode: 10
      m_PreInfinity: 2
      m_PostInfinity: 2
    attribute: m_Color.a
    path: Text/RokaiLabs/Logo
    classID: 212
    script: {fileID: 0}
  - curve:
      serializedVersion: 2
      m_Curve:
      - time: 0
        value: 1
        inSlope: -.110701099
        outSlope: -.110701099
        tangentMode: 10
      m_PreInfinity: 2
      m_PostInfinity: 2
    attribute: material._FaceColor.r
    path: Text/RokaiLabs
    classID: 23
    script: {fileID: 0}
  - curve:
      serializedVersion: 2
      m_Curve:
      - time: 0
        value: 1
        inSlope: -.110701099
        outSlope: -.110701099
        tangentMode: 10
      m_PreInfinity: 2
      m_PostInfinity: 2
    attribute: material._FaceColor.g
    path: Text/RokaiLabs
    classID: 23
    script: {fileID: 0}
  - curve:
      serializedVersion: 2
      m_Curve:
      - time: 0
        value: 1
        inSlope: -.110701099
        outSlope: -.110701099
        tangentMode: 10
      m_PreInfinity: 2
      m_PostInfinity: 2
    attribute: material._FaceColor.b
    path: Text/RokaiLabs
    classID: 23
    script: {fileID: 0}
  - curve:
      serializedVersion: 2
      m_Curve:
      - time: 0
        value: 1
        inSlope: 0
        outSlope: 0
        tangentMode: 10
      m_PreInfinity: 2
      m_PostInfinity: 2
    attribute: material._FaceColor.r
    path: Text/Welcome
    classID: 23
    script: {fileID: 0}
  - curve:
      serializedVersion: 2
      m_Curve:
      - time: 0
        value: 1
        inSlope: 0
        outSlope: 0
        tangentMode: 10
      m_PreInfinity: 2
      m_PostInfinity: 2
    attribute: material._FaceColor.g
    path: Text/Welcome
    classID: 23
    script: {fileID: 0}
  - curve:
      serializedVersion: 2
      m_Curve:
      - time: 0
        value: 1
        inSlope: 0
        outSlope: 0
        tangentMode: 10
      m_PreInfinity: 2
      m_PostInfinity: 2
    attribute: material._FaceColor.b
    path: Text/Welcome
    classID: 23
    script: {fileID: 0}
  - curve:
      serializedVersion: 2
      m_Curve:
      - time: 0
        value: 0
        inSlope: 0
        outSlope: 0
        tangentMode: 10
      - time: 7
        value: 0
        inSlope: .333333343
        outSlope: .333333343
        tangentMode: 10
      - time: 8.5
        value: 1
        inSlope: .666666687
        outSlope: .666666687
        tangentMode: 10
      m_PreInfinity: 2
      m_PostInfinity: 2
    attribute: material._FaceColor.a
    path: Text/Welcome
    classID: 23
    script: {fileID: 0}
  m_EulerEditorCurves: []
  m_HasGenericRootTransform: 0
  m_HasMotionFloatCurves: 0
  m_GenerateMotionCurves: 0
  m_Events:
  - time: 12.9499998
    functionName: PlayAudio
    data: 
    objectReferenceParameter: {fileID: 0}
    floatParameter: 0
    intParameter: 0
    messageOptions: 0
  - time: 13
    functionName: TransitionToTour
    data: 
    objectReferenceParameter: {fileID: 0}
    floatParameter: 0
    intParameter: 0
    messageOptions: 0
